{
  "verbose": true,
  "restartable": "rs",
  "ignore": [
    "node_modules",
    ".next",
    ".build"
  ],
  "watch": [
    "src/server/index.js",
    "src/routes/index.js"
  ],
  "ext": "js json"
}
